Prepare Phenotype and Covariate Data • qgg
…
 Give column names. “L” = lines, “F” = female, “M” = male.

colnames(starF) <- c("L", "F")
colnames(starM) <- c("L", "M")

In dplyr a data frame has to be converted to a tibble (tbl). Convert starF and starM to tibbles.

starF <- tbl_df(starF)
starM <- tbl_df(starM)

Look at the tibbles

starF

## # A tibble: 203 x 2
##    L            F
##    <fct>    <dbl>
##  1 line_100  77.9
##  2 line_101  57.8
##  3 line_105  73.1
##  4 line_109  53.4
##  5 line_129  42.8
##  6 line_136 104. 
##  7 line_138  59.5
##  8 line_142  59.3
##  9 line_149  47  
## 10 line_153  59.0
## # ... with 193 more rows

starM

## # A tibble: 203 x 2
##    L            M
##    <fct>    <dbl>
##  1 line_100  49.3
##  2 line_101  47.2
##  3 line_105  51.0
##  4 line_109  45.0
##  5 line_129  33.1
##  6 line_136  63.0
##  7 line_138  47.8
##  8 line_142  38.4
##  9 line_149  35.8
## 10 line_153  40.3
## # ... with 193 more rows

 Join the tibbles for males and females.

starMF <- left_join(starM, starF, by= "L")
starMF

## # A tibble: 203 x 3
##    L            M     F
##    <fct>    <dbl> <dbl>
##  1 line_100  49.3  77.9
##  2 line_101  47.2  57.8
##  3 line_105  51.0  73.1
##  4 line_109  45.0  53.4
##  5 line_129  33.1  42.8
##  6 line_136  63.0 104. 
##  7 line_138  47.8  59.5
##  8 line_142  38.4  59.3
##  9 line_149  35.8  47  
## 10 line_153  40.3  59.0
## # ... with 193 more rows
…
invcols <- colnames(inv)    
invcols[1] <- "L"
invcols[2:17] <- gsub("(", "_", invcols[2:17], fixed = TRUE)
invcols[2:17] <- gsub(")", "_", invcols[2:17], fixed = TRUE)
colnames(inv) <- invcols
inv

## # A tibble: 205 x 17
##    L     In_2L_t In_2R_NS In_2R_Y1 In_2R_Y2 In_2R_Y3 In_2R_Y4 In_2R_Y5
##    <chr> <chr>   <chr>    <chr>    <chr>    <chr>    <chr>    <chr>   
##  1 21    ST      ST       ST       ST       ST       ST       ST      
##  2 26    INV     ST       ST       ST       ST       ST       ST      
##  3 28    ST      INV      ST       ST       ST       ST       ST      
##  4 31    ST      ST       ST       ST       ST       ST       ST      
##  5 32    INV     ST       ST       ST       ST       ST       ST      
##  6 38    ST      ST       ST       ST       ST       ST       ST      
##  7 40    ST      ST       ST       ST       ST       ST       ST      
##  8 41    ST      ST       ST       ST       ST       ST       ST      
##  9 42    ST      ST       ST       ST       ST       ST       ST      
## 10 45    ST      ST       ST       ST       ST       ST       ST      
## # ... with 195 more rows, and 9 more variables: In_2R_Y6 <chr>,
## #   In_2R_Y7 <chr>, In_3L_P <chr>, In_3L_M <chr>, In_3L_Y <chr>,
## #   In_3R_P <chr>, In_3R_K <chr>, In_3R_Mo <chr>, In_3R_C <chr>

Read and edit Wolbachia status

wo <- read_excel("C:/Users/Izel/Dropbox/qgg-usersguide/data/wolbachia.xlsx",
                   sheet = 1, col_names = TRUE)
wo

## # A tibble: 205 x 2
##    `DGRP Line` `Infection Status`
##    <chr>       <chr>             
##  1 DGRP__21    y                 
##  2 DGRP__26    n                 
##  3 DGRP__28    n                 
##  4 DGRP__31    n                 
##  5 DGRP__32    n                 
##  6 DGRP__38    n                 
##  7 DGRP__40    y                 
##  8 DGRP__41    n                 
##  9 DGRP__42    n                 
## 10 DGRP__45    n                 
## # ... with 195 more rows

dim(wo)

## [1] 205   2

Change column names of wo

colnames(wo) <- c("L", "wo")
wo$L <- gsub("DGRP__", "", wo$L, fixed=TRUE)
wo

## # A tibble: 205 x 2
##    L     wo   
##    <chr> <chr>
##  1 21    y    
##  2 26    n    
##  3 28    n    
##  4 31    n    
##  5 32    n    
##  6 38    n    
##  7 40    y    
##  8 41    n    
##  9 42    n    
## 10 45    n    
## # ... with 195 more rows

Create final data frame

Merge phenotype data with inversion status and Wolbachia infection status.

starvInv <- left_join(starv, inv, by= "L")
starvInv

## # A tibble: 406 x 19
##    L     sex       y In_2L_t In_2R_NS In_2R_Y1 In_2R_Y2 In_2R_Y3 In_2R_Y4
##    <chr> <chr> <dbl> <chr>   <chr>    <chr>    <chr>    <chr>    <chr>   
##  1 100   M      49.3 INV/ST  ST       ST       ST       ST       ST      
##  2 101   M      47.2 INV/ST  ST       ST       ST       ST       ST      
##  3 105   M      51.0 ST      ST       ST       ST       ST       ST      
##  4 109   M      45.0 INV/ST  ST       ST       ST       ST       ST      
##  5 129   M      33.1 ST      ST       ST       ST       ST       ST      
##  6 136   M      63.0 ST      ST       ST       ST       ST       ST      
##  7 138   M      47.8 ST      ST       ST       ST       ST       ST      
##  8 142   M      38.4 ST      ST       ST       ST       ST       ST      
##  9 149   M      35.8 ST      ST       ST       ST       ST       ST      
## 10 153   M      40.3 ST      ST       ST       ST       ST       ST      
## # ... with 396 more rows, and 10 more variables: In_2R_Y5 <chr>,
## #   In_2R_Y6 <chr>, In_2R_Y7 <chr>, In_3L_P <chr>, In_3L_M <chr>,
## #   In_3L_Y <chr>, In_3R_P <chr>, In_3R_K <chr>, In_3R_Mo <chr>,
## #   In_3R_C <chr>
…
